Week 3 Worksheet
…
We see we have 6,779 unique individuals. Lets tidy our data to remove duplicate IDs. Note that below were using the pipe operator %>% You can read it as and then so it means were taking the NHANES dataset and then filtering it keep just rows with distinct ID numbers. The pipe operator really helps with the readability of your data wrangling code and is an integral part of the tidyverse philosophy - tidy data and tidy code.

NHANES_tidied <- NHANES %>% 
  distinct(ID, .keep_all = TRUE)

nrow(NHANES_tidied)

## [1] 6779

NHANES_tidied

## # A tibble: 6,779 x 76
##       ID SurveyYr Gender   Age AgeDecade AgeMonths Race1 Race3 Education
##    <int> <fct>    <fct>  <int> <fct>         <int> <fct> <fct> <fct>    
##  1 51624 2009_10  male      34 " 30-39"        409 White <NA>  High Sch
##  2 51625 2009_10  male       4 " 0-9"           49 Other <NA>  <NA>     
##  3 51630 2009_10  female    49 " 40-49"        596 White <NA>  Some Col
##  4 51638 2009_10  male       9 " 0-9"          115 White <NA>  <NA>     
##  5 51646 2009_10  male       8 " 0-9"          101 White <NA>  <NA>     
##  6 51647 2009_10  female    45 " 40-49"        541 White <NA>  College 
##  7 51654 2009_10  male      66 " 60-69"        795 White <NA>  Some Col
##  8 51656 2009_10  male      58 " 50-59"        707 White <NA>  College 
##  9 51657 2009_10  male      54 " 50-59"        654 White <NA>  9 - 11th
## 10 51659 2009_10  female    10 " 10-19"        123 White <NA>  <NA>     
## #  with 6,769 more rows, and 67 more variables: MaritalStatus <fct>,
## #   HHIncome <fct>, HHIncomeMid <int>, Poverty <dbl>, HomeRooms <int>,
## #   HomeOwn <fct>, Work <fct>, Weight <dbl>, Length <dbl>, HeadCirc <dbl>,
## #   Height <dbl>, BMI <dbl>, BMICatUnder20yrs <fct>, BMI_WHO <fct>,
## #   Pulse <int>, BPSysAve <int>, BPDiaAve <int>, BPSys1 <int>,
## #   BPDia1 <int>, BPSys2 <int>, BPDia2 <int>, BPSys3 <int>, BPDia3 <int>,
## #   Testosterone <dbl>, DirectChol <dbl>, TotChol <dbl>, UrineVol1 <int>,
## #   UrineFlow1 <dbl>, UrineVol2 <int>, UrineFlow2 <dbl>, Diabetes <fct>,
## #   DiabetesAge <int>, HealthGen <fct>, DaysPhysHlthBad <int>,
…
