ANOVA_part_1_lab_script_answers
…
Question 1

Now you need to load our first data file. This is called ANOVA_lab1_data1.csv - when you load it, you need to assign it to a new variable called data. Load it using the Import Dataset button in the Environment window of RStudio.

data <- read_csv("ANOVA_lab1_data1.csv")

24 participants responded to a word that was either common (i.e., high lexical frequency) or rare (i.e., low lexical frequency). This is our IV and is coded as High vs. Low. Our DV is reaction time and is coded as RT. Subject number is coded as Subject. We want to know whether there is a difference between conditions (and if so, where that difference lies). Visualise the data, generate descrtiptives, and run the appropriate ANOVA to determine whether our independent variable (Condition) has an influence on our dependent variable (RT).

If you type data you will see the first 10 rows of our dataframe..

data

## # A tibble: 24 x 3
##    Subject Condition    RT
##      <int> <chr>     <int>
##  1       1 low        1103
##  2       2 low        1170
##  3       3 low        1225
##  4       4 low        1084
##  5       5 low        1219
##  6       6 low        1203
##  7       7 low        1208
##  8       8 low        1311
##  9       9 low        1078
## 10      10 low        1326
## # ... with 14 more rows
…
